<?xml version="1.0" standalone="no"?>
<!DOCTYPE svg PUBLIC "-//W3C//DTD SVG 20010904//EN"
 "http://www.w3.org/TR/2001/REC-SVG-20010904/DTD/svg10.dtd">
<svg version="1.0" xmlns="http://www.w3.org/2000/svg"
 width="512.000000pt" height="512.000000pt" viewBox="0 0 512.000000 512.000000"
 preserveAspectRatio="xMidYMid meet">
<metadata>
Created by potrace 1.14, written by Peter Selinger 2001-2017
</metadata>
<g transform="translate(0.000000,512.000000) scale(0.100000,-0.100000)"
fill="#000000" stroke="none">
<path d="M4602 4853 c-5 -16 -15 -47 -21 -70 -13 -47 -18 -51 -35 -28 -15 20
-89 35 -112 22 -72 -37 -52 -110 32 -113 79 -3 107 8 119 46 5 19 13 40 17 46
9 14 23 124 16 124 -3 0 -10 -12 -16 -27z"/>
<path d="M4800 4813 c-19 -93 -22 -103 -30 -103 -5 0 -12 5 -15 10 -3 6 -26
10 -51 10 -34 0 -51 -6 -69 -25 -14 -13 -25 -30 -25 -37 2 -57 127 -91 169
-46 11 11 18 25 15 30 -5 7 19 157 32 201 3 9 1 17 -5 17 -5 0 -15 -26 -21
-57z"/>
<path d="M991 4409 c-220 -80 -381 -247 -455 -475 -9 -28 -23 -59 -30 -69 -13
-18 -14 -18 -41 3 -49 39 -94 25 -118 -36 -9 -21 -27 -46 -40 -55 -35 -23 -81
-146 -73 -193 4 -20 11 -32 17 -28 6 3 17 -3 25 -15 20 -28 34 -18 34 25 0 43
20 124 30 124 4 0 10 -7 14 -15 10 -26 22 -16 35 27 7 23 17 53 22 67 l10 25
38 -44 c40 -46 71 -51 71 -10 0 33 20 13 46 -46 13 -30 28 -54 33 -54 5 0 14
12 19 28 10 26 11 25 41 -41 29 -63 51 -79 51 -39 1 30 27 -14 41 -69 14 -52
22 -59 38 -32 14 26 19 15 33 -68 6 -40 13 -76 15 -78 2 -2 12 4 23 14 20 18
20 18 20 -63 0 -82 5 -93 29 -69 14 13 13 -23 -5 -132 -7 -41 -6 -43 15 -36
20 6 21 4 15 -22 -3 -15 -23 -64 -44 -108 -56 -116 -129 -183 -222 -200 -31
-6 -38 -4 -52 17 -41 64 -116 338 -156 574 -11 64 -22 119 -26 123 -4 3 -3
-50 0 -119 11 -193 43 -388 90 -551 l23 -78 -26 -24 c-71 -67 -161 -53 -260
39 -32 30 -62 54 -65 54 -4 0 5 -20 19 -43 14 -24 25 -55 25 -70 0 -40 10 -57
35 -57 13 0 27 -5 30 -10 4 -6 32 -26 62 -46 47 -30 62 -35 92 -30 99 18 111
18 111 5 0 -8 18 -48 39 -90 22 -42 36 -80 33 -86 -4 -6 -40 -31 -80 -57 -77
-49 -275 -206 -304 -240 -18 -22 -24 -81 -10 -90 5 -3 24 11 43 30 74 76 363
294 391 294 10 0 130 -91 175 -133 l32 -30 -23 -31 c-37 -49 -71 -123 -101
-218 -24 -77 -27 -100 -23 -190 3 -92 7 -110 37 -169 44 -89 107 -158 248
-271 132 -105 174 -132 283 -176 105 -43 154 -56 410 -106 281 -55 342 -61
508 -47 218 19 422 80 642 192 266 136 413 358 414 629 1 150 -38 229 -171
344 -43 38 -80 73 -82 78 -1 5 15 30 36 56 22 26 46 58 53 72 7 14 16 27 19
30 6 5 16 22 78 137 30 55 37 62 53 53 11 -6 23 -16 27 -23 4 -6 31 -21 59
-33 39 -16 69 -20 133 -19 77 2 85 4 136 40 98 67 189 210 187 292 -1 23 5 58
14 79 10 24 13 46 8 63 -4 14 -9 51 -10 81 -6 128 -17 195 -35 219 -11 14 -19
40 -19 62 0 25 -8 47 -25 67 -14 17 -25 37 -25 45 0 9 -12 29 -26 46 -14 17
-30 46 -35 65 -5 20 -24 50 -42 67 -17 18 -39 49 -49 70 -22 50 -54 59 -103
29 -53 -33 -61 -20 -68 108 -9 176 -43 271 -139 385 -96 115 -179 170 -330
217 -140 45 -258 39 -258 -12 0 -6 14 -22 31 -37 105 -89 131 -118 161 -179
30 -60 32 -74 36 -188 4 -99 2 -125 -10 -129 -13 -5 -190 86 -253 131 -27 19
-185 95 -300 144 -62 26 -167 46 -323 61 -205 20 -513 -8 -690 -62 -37 -12
-71 -25 -77 -29 -5 -4 -39 -20 -75 -35 -36 -15 -71 -29 -77 -32 -22 -9 -14 30
17 84 47 82 127 160 200 196 54 26 66 37 68 59 4 35 -32 58 -141 93 -100 32
-153 31 -256 -6z m256 -68 l32 -16 -67 -50 c-81 -61 -137 -138 -192 -265 l-41
-95 -66 -35 c-36 -19 -81 -50 -101 -67 -21 -18 -41 -33 -45 -33 -5 0 -20 -9
-34 -20 l-25 -20 -30 25 c-16 14 -35 25 -42 25 -7 0 -23 11 -36 25 l-24 26 24
70 c89 263 347 473 555 453 33 -4 74 -14 92 -23z m1680 -62 c54 -17 119 -44
145 -61 66 -42 191 -178 222 -241 33 -66 56 -186 56 -287 0 -95 -4 -106 -43
-126 -16 -9 -41 -29 -55 -45 -20 -25 -30 -29 -61 -25 -54 7 -66 13 -100 56
-17 22 -56 66 -86 98 l-55 59 11 59 c6 32 9 113 7 179 -5 144 -25 204 -99 301
-27 35 -47 64 -44 64 2 0 49 -14 102 -31z m-640 -374 c49 -8 113 -22 143 -31
103 -31 371 -177 420 -229 25 -27 38 -87 17 -79 -8 3 -21 -16 -36 -51 -13 -30
-29 -55 -37 -55 -8 0 -30 22 -50 50 -90 125 -305 225 -524 244 -41 4 -94 12
-117 18 -31 8 -51 7 -75 -2 -18 -6 -118 -15 -223 -20 -105 -4 -226 -16 -270
-25 -167 -35 -322 -112 -417 -207 -32 -32 -62 -58 -67 -58 -16 0 -42 93 -48
172 l-6 76 29 15 c16 8 61 27 99 42 39 16 72 31 75 35 4 6 157 50 220 64 63
13 322 43 444 51 44 3 82 8 85 11 9 9 239 -5 338 -21z m-339 -250 c2 -16 12
-41 21 -55 10 -14 21 -43 25 -65 11 -57 41 -110 78 -136 26 -19 50 -25 123
-29 83 -5 94 -8 139 -40 43 -31 56 -35 125 -38 65 -3 83 0 121 20 58 31 94 94
85 151 l-5 38 45 -52 c26 -28 50 -62 55 -75 6 -16 17 -24 33 -24 19 0 31 15
64 78 23 42 43 86 45 97 8 50 55 46 133 -10 70 -50 88 -86 62 -127 -8 -13 -18
-39 -21 -59 -4 -20 -20 -53 -35 -73 -16 -20 -32 -55 -36 -78 -4 -22 -16 -55
-26 -73 -24 -40 -28 -151 -9 -215 13 -42 14 -43 18 -17 3 23 8 28 23 24 18 -5
19 -1 13 75 -7 79 -7 80 14 73 21 -6 22 -3 22 52 0 57 16 102 27 76 10 -25 21
-12 28 34 12 81 37 121 48 76 3 -16 5 -16 12 2 40 102 46 111 60 91 13 -17 16
-14 42 38 15 31 30 56 33 56 3 0 11 -12 16 -27 l10 -28 27 52 c31 61 46 73 54
44 8 -31 28 -26 60 14 15 19 31 35 35 35 4 0 15 -26 24 -57 22 -72 21 -71 38
-47 14 18 15 18 25 -9 6 -16 14 -53 17 -83 7 -53 16 -66 30 -42 11 17 22 -23
23 -82 l2 -45 21 25 20 25 -4 -78 c-3 -77 -3 -78 20 -72 20 5 22 3 16 -22 -3
-16 -10 -41 -15 -57 -13 -42 -11 -49 11 -43 24 6 26 -10 5 -60 -20 -47 -19
-53 6 -53 24 0 20 -20 -15 -83 -20 -38 -20 -39 -2 -53 18 -13 18 -16 -15 -69
-48 -80 -145 -171 -197 -185 -53 -14 -109 0 -142 35 -22 24 -23 28 -12 68 43
148 73 282 92 419 22 160 23 245 1 108 -26 -155 -116 -455 -156 -516 -17 -26
-62 -32 -108 -15 -37 14 -97 70 -129 120 -32 51 -34 46 -13 -25 11 -37 27 -60
66 -95 l52 -45 -17 -51 c-18 -53 -100 -196 -141 -245 -13 -15 -25 -33 -27 -40
-5 -13 -25 -2 -82 46 -27 22 -28 26 -17 56 15 45 14 80 -3 80 -15 0 -68 -62
-79 -91 -7 -20 10 -39 34 -39 9 0 19 -10 23 -24 5 -20 28 -44 111 -115 11 -9
50 -40 87 -69 73 -58 141 -150 159 -215 35 -130 -33 -354 -153 -509 -55 -71
-214 -168 -366 -224 -292 -108 -335 -116 -587 -117 -133 0 -182 5 -290 26
-462 93 -551 128 -768 303 -173 140 -239 240 -245 377 -3 64 1 93 23 165 36
116 62 164 130 242 112 129 199 185 395 255 117 41 150 59 150 79 0 8 -11 34
-25 57 -46 81 -30 165 44 232 52 46 101 50 179 11 78 -39 112 -109 93 -194 -5
-23 -7 -49 -4 -56 9 -24 84 -36 200 -32 147 4 148 5 148 135 0 68 4 98 13 100
6 3 12 11 12 18 0 8 27 43 59 77 57 61 90 83 194 127 26 11 47 25 47 31 0 14
-78 12 -124 -5 -27 -9 -45 -11 -57 -4 -26 13 -113 -22 -174 -70 -27 -22 -51
-38 -53 -36 -2 2 13 35 33 73 48 92 141 188 235 242 68 40 81 44 140 43 95 0
203 -57 316 -165 74 -71 84 -78 84 -56 0 13 -13 44 -28 69 -86 133 -272 231
-410 214 -116 -14 -267 -124 -361 -263 -24 -35 -46 -60 -50 -55 -4 4 -13 28
-20 52 -28 96 -130 206 -220 236 -117 39 -304 0 -441 -90 -111 -74 -146 -110
-189 -194 -60 -121 -77 -208 -64 -328 6 -54 20 -125 32 -158 32 -89 29 -105
-27 -140 -26 -16 -51 -30 -56 -30 -12 0 -56 123 -56 159 0 15 7 56 16 89 25
98 1 182 -70 245 l-35 31 26 48 c15 26 32 53 39 58 7 6 28 44 47 85 26 56 36
93 40 148 5 67 4 72 -12 67 -16 -5 -19 2 -23 45 -3 28 -12 58 -20 68 -9 9 -18
39 -22 67 -4 32 -16 62 -34 85 -16 19 -34 50 -40 68 -6 18 -21 46 -32 62 l-21
29 38 25 c52 36 63 33 63 -12 0 -95 82 -302 119 -302 22 0 41 27 41 59 0 40
120 150 215 198 130 66 351 112 520 110 l110 -2 3 -30z m-175 -534 c102 -44
175 -151 185 -270 l5 -64 -59 42 c-111 81 -130 91 -189 102 -66 12 -166 6
-225 -15 -58 -20 -189 -107 -227 -151 -19 -22 -49 -70 -66 -107 -18 -37 -35
-68 -39 -68 -5 0 -8 32 -8 70 0 77 22 155 65 232 30 53 130 145 195 178 131
67 277 88 363 51z"/>
<path d="M4560 4368 c-10 -24 -24 -71 -30 -105 -12 -59 -23 -78 -32 -52 -7 20
-91 18 -120 -3 -38 -27 -39 -80 -3 -96 50 -23 140 -5 151 30 3 10 10 18 15 18
6 0 8 4 5 9 -9 13 23 172 38 193 12 17 14 16 20 -14 10 -53 53 -87 72 -56 4 7
3 8 -4 4 -14 -8 -47 28 -48 52 -1 9 -2 27 -3 40 -2 40 -40 28 -61 -20z"/>
<path d="M4842 4083 c-11 -21 -25 -68 -32 -105 -8 -43 -17 -68 -25 -68 -7 0
-15 4 -17 9 -1 5 -19 12 -38 16 -27 5 -43 1 -69 -17 -82 -56 -20 -135 83 -107
39 11 68 45 72 87 8 75 28 155 45 175 l18 22 1 -25 c1 -14 5 -34 10 -45 6 -13
7 -4 4 29 -8 79 -23 87 -52 29z"/>
<path d="M4236 3722 c-7 -15 -17 -47 -21 -72 -10 -59 -11 -60 -45 -48 -44 15
-95 3 -108 -26 -35 -77 73 -126 137 -62 18 19 26 40 32 86 4 34 10 64 13 67 3
4 19 -6 35 -21 24 -23 38 -28 80 -28 l50 1 -4 -70 c-3 -39 -7 -74 -10 -80 -4
-5 -17 -2 -30 7 -32 21 -82 12 -118 -21 -36 -34 -34 -61 6 -85 33 -21 79 -20
124 2 26 13 27 17 59 274 l6 52 -53 -1 c-43 -1 -63 4 -96 26 l-43 27 -14 -28z
m137 -49 c40 -4 46 -7 36 -19 -15 -18 -63 -18 -99 1 -36 18 -41 41 -7 30 12
-4 44 -10 70 -12z"/>
<path d="M4781 3141 c-6 -11 -11 -31 -11 -46 0 -47 -30 -99 -95 -165 -100
-101 -124 -174 -106 -317 12 -96 33 -145 94 -227 73 -95 87 -132 87 -220 0
-91 -49 -258 -103 -346 -53 -89 -131 -183 -192 -230 -31 -25 -66 -54 -78 -64
-12 -10 -60 -37 -107 -59 -90 -43 -157 -102 -206 -184 -14 -24 -29 -43 -33
-43 -4 0 -30 46 -57 103 -132 277 -417 616 -696 829 -114 87 -123 92 -142 72
-27 -27 -21 -35 83 -107 120 -84 340 -301 447 -441 62 -82 134 -189 134 -200
0 -6 -23 -23 -50 -38 -77 -43 -151 -161 -185 -295 -32 -131 -39 -223 -27 -346
12 -112 34 -168 117 -293 63 -96 85 -162 85 -255 0 -37 4 -70 9 -74 6 -3 41 2
79 10 53 12 79 13 113 6 24 -6 71 -11 104 -11 33 0 95 -7 138 -15 44 -8 83
-12 89 -9 12 7 5 101 -18 269 -30 215 -77 407 -148 602 -24 64 -25 74 -12 100
8 15 23 49 35 75 33 75 85 126 176 168 153 71 311 217 401 370 65 110 115 271
121 393 6 91 8 100 38 140 42 54 57 121 43 196 -9 47 -7 71 9 141 24 101 18
198 -15 233 -37 42 -46 72 -51 182 l-6 110 -27 3 c-18 2 -30 -3 -37 -17z"/>
<path d="M217 1163 c-12 -11 -7 -61 9 -103 12 -30 15 -54 9 -93 -10 -70 -10
-151 -1 -213 7 -40 5 -62 -9 -97 -11 -30 -15 -60 -12 -89 3 -24 12 -110 21
-193 12 -118 19 -152 33 -162 9 -7 45 -13 81 -13 35 0 86 -7 113 -16 48 -16
56 -16 129 1 48 11 95 16 122 12 33 -5 222 10 236 18 6 4 -32 81 -73 144 -45
69 -86 111 -110 111 -7 0 -44 16 -83 35 -81 41 -177 136 -217 216 -14 27 -46
106 -70 174 -51 146 -55 154 -109 223 -39 50 -55 60 -69 45z"/>
<path d="M2060 679 c-151 -11 -216 -31 -344 -108 -115 -70 -212 -150 -267
-220 -44 -57 -76 -117 -68 -126 3 -2 63 -7 134 -10 72 -4 145 -11 163 -17 24
-7 44 -6 82 7 44 14 58 15 103 4 64 -15 487 -15 566 0 38 8 72 8 120 0 77 -14
445 -18 458 -6 14 15 -36 46 -110 68 -40 12 -89 30 -110 40 -62 32 -203 146
-254 206 -124 145 -226 180 -473 162z"/>
</g>
</svg>
